519926 527395 408
60151 116320 354
482447 528328 470
508422 595461 470
85734 161003 383
518264 541054 439
547153 601897 434
460452 494780 444
272021 362589 441
854663 924396 476
816957 910217 525
531315 536052 377
697573 703143 411
643749 668476 442
459670 481188 444
652389 665532 442
252971 336768 407
185466 191962 360
529711 553651 452
339757 354968 441
29256 59388 340
704829 714420 411
163268 172692 352
209322 296128 443
879580 962672 507
283454 291515 389
878731 973875 507
284810 308272 389
218262 259564 443
468441 476225 382
48685 119346 354
582277 621411 447
606605 614636 403
460601 549565 470
638674 723330 504
606812 681162 509
704106 759728 504
226063 255564 443
679570 687976 398
114861 173067 383
291223 350012 441
112032 200155 383
303582 392300 441
228718 260726 443
781471 784814 362
814272 859790 525
830405 906417 525
269425 352982 441
461026 511735 444
137764 229399 386
552084 620657 447
570940 642407 509
41273 84247 351
623226 699231 509
651300 727478 504
631577 692788 442
4536 63788 340
597533 650213 509
728690 767848 424
650331 737406 504
657228 731796 504
350680 427010 449
410245 468516 444
203920 280305 443
482236 556009 470
674023 717400 504
771648 834820 468
782432 861232 525
649742 698999 442
132484 190985 383
255866 316477 407
340062 354867 441
748507 822356 468
14849 64827 340
128782 188778 383
36707 37565 306
882501 954028 507
822102 872276 525
165269 186423 365
645003 722551 504
175039 248635 443
517051 574676 452
853608 877677 432
354681 377174 423
614985 650293 509
588659 685613 509
526040 581871 452
599903 651271 509
648023 747667 504
70881 139308 354
322051 421450 449
672252 676535 385
208015 213223 355
874051 966727 507
795407 847500 525
414785 423187 387
343619 362947 441
865218 942861 507
837741 925094 525
787619 853858 525
480875 526238 470
496225 525003 470
252869 308997 407
205121 224430 386
665148 670576 442
827947 863843 525
464813 467256 369
430316 520716 470
522561 575175 452
533134 579926 452
730836 800873 468
873038 878244 432
821135 907683 525
343883 418361 449
171522 175575 347
804979 817616 406
535486 588825 452
660459 723326 504
345521 400062 441
132834 204639 383
543961 600177 452
284819 318814 389
519269 587919 452
429244 506588 444
275933 375497 441
288872 358718 441
60488 128597 354
663725 665518 442
17697 28812 308
721738 808113 468
500103 586034 470
212441 275129 443
838050 874533 432
361515 435992 449
364413 375740 392
161714 177711 352
575924 617868 447
145363 235825 443
459347 524041 470
226657 254181 443
388323 434124 449
117328 155007 375
461265 542800 470
753637 783224 468
275096 362095 441
518648 613429 452
741053 759340 424
473657 519961 470
431403 455624 400
311697 344797 384
362502 455924 449
772065 853518 525
268842 357863 441
146195 192595 383
831339 902813 525
536586 616676 452
100831 121514 354
50635 121387 354
195410 248613 443
82560 98572 333
804548 867261 525
678317 701427 442
798961 888284 525
310282 346843 441
230448 266839 443
859390 924915 476
637347 692678 442
635998 693878 442
536889 550747 452
34514 129971 354
233290 233672 306
837236 926613 525
383886 413122 449
123711 216187 383
730492 793247 468
824770 848034 525
10297 56823 340
408437 432444 449
159480 245992 443
720505 819306 468
899587 929579 476
778447 808840 468
823432 912006 525
162934 218257 386
204706 206931 373
61812 76946 330
506141 543732 470
441710 465928 444
653418 661271 429
860318 884338 432
159916 193557 370
159604 222726 386
421778 469215 444
254100 351794 441
618985 708149 509
445029 530585 470
562079 572170 421
375098 429571 449
757937 793179 468
91180 148186 375
804381 902258 525
257855 336258 407
36384 64555 340
551016 608910 434
148073 183612 383
278597 334278 389
593998 664468 509
619330 684343 509
569885 651106 509
767930 780850 437
413921 424999 418
475969 507904 426
876702 899570 445
151080 248102 443
712462 779161 468
453612 544401 470
139273 154093 375
484154 582707 470
170053 230570 386
507150 574171 470
442732 511392 444
439613 509668 444
8423 53994 340
737048 821478 468
428446 436019 387
867734 957530 507
216792 313845 443
386140 398573 436
326030 414648 449
470358 474172 382
440486 518811 470
854078 936743 476
529711 626251 452
223358 307008 443
478363 543703 470
114912 143999 375
778940 792565 406
689852 690754 336
872561 966538 507
722770 806172 468
631657 731304 504
868070 910254 476
446650 458113 387
677139 735557 504
319502 358892 441
397698 450426 449
50835 92534 351
431492 450768 400
890899 939367 476
11127 64666 340
539560 614800 452
259574 343687 407
47097 121326 354
777949 817852 468
579386 665737 509
234066 267528 407
796136 846721 525
832331 928829 525
645187 725171 504
796855 830709 450
227413 295060 443
147527 190048 383
28337 68421 340
701598 761778 504
321678 372871 441
133898 212189 383
32171 113224 354
778960 830811 468
640003 716833 504
350137 391401 436
293488 343735 384
650996 708298 504
159860 220867 386
869005 874864 432
558641 601508 434
66766 107173 354
148205 205472 383
700082 754050 504
230932 265573 407
8616 30325 308
761307 794953 468
377785 425174 449
727908 737660 424
792476 805825 468
284227 365166 441
418779 478197 444
302235 362446 441
648923 745463 504
279202 328659 389
47699 136584 354
95487 162487 383
882063 954533 507
23761 90168 351
318895 359731 441
846829 929539 476
125080 210159 383
130757 163703 383
279562 331945 389
657138 711515 504
588469 666881 509