1 10 20
100 200 125
201 210 89
900 1000 174
26 15 24
100 200 125
61 200 125
19 26 24
60 78 116
66 90 116
30 9 112
888 16 179
16 920 179
166 500 144
94 841 171
56 875 179
2 64 113
1 89 116
84 164 122
71 123 119
64 999 179
9 999 179
1 999 179
999 999999 525
889 7000 262
1 1000 179
90 888 179
63 84 116
1 5 8
2 10 20
33 333 144
16 3055 217
842 1651 182
21 84 116
1 2587 209
6 51 112
4 658 145
89 841 171
20 324 131
15 61 113
4 5711 238
100 254 128
60 648 144
84 716 171
614 898 179
12 487 144
32 888 179
49 514 144
635 800 171
12 51 112
64 887 179
11 99 119
22 88 116
48 26 112
81 444 144
52 421 144
1 500 144
1 954 179
67 844 171
51 310 128
19 460 144
888 1000 174
100 5000 238
900 84 179
546 15 144
9873 51 262
216 8422 262
9871 8134 260
16 84 116
43 58 113
65 98 119
30 84 116
15 46 112
1 2 2
98 874 179
10 50 112
64 90 116
46 15 112
43 65 113
15 2 20
2 843 171
11 90 116
146 311 128
567 600 119
132 164 117
123 546 144
301 310 87
700 800 171
209 988 179
1003 1500 182
1230 1244 133
2450 3504 217
3508 5750 238
1240 5083 238
5437 9470 262
1253 5383 238
244 256 110
677 749 171
459 600 142
3000 4000 238
450 750 171
1201 1210 71
365 478 134
213 241 128
5433 8545 262
8000 9000 247
2450 5303 238
5394 6489 262
3582 9445 262
2456 8734 262
3542 3552 88
3578 3595 150
9783 9999 242
250 350 144
230 250 128
190 199 120
1 55 113
9999 10000 92
2422 4431 238
2383 8503 262
4560 4899 197
3405 3209 181
1200 1300 177
1450 1600 172
4500 5000 210
2340 5300 238
3423 5803 238
3523 9034 262
925203 254571 525
21933 394803 443
511147 612490 470
479638 170957 449
951721 745634 525
802469 676777 504
161958 109381 383
950079 939300 507
976994 172094 525
131374 751456 509
22072 701503 509
978213 204933 525
223649 577409 470
494448 17987 449
825408 114863 509
699952 754213 504
209609 521746 470
759535 425601 509
860115 903172 445
533602 740088 509
855429 334411 525
146427 298997 443
924606 188917 525
322785 508418 449
764630 124352 509
19276 801851 509
87709 25881 351
17563 838650 525
983715 649705 525
658989 272628 509
595377 883348 525
763612 583805 509
925141 200010 525
362451 975333 525
443766 911741 525
941718 544722 525
210168 262502 443
775714 108002 509
515493 433864 470
614058 729436 509
320635 442256 449
557353 903225 525
458031 852664 525
74085 494524 449
812843 469398 509
365998 487887 449
233234 917511 525
443762 369100 449
791730 939005 525
33529 74504 340
373071 344764 441
89791 650045 509
466283 141895 449
112582 530631 470
521633 754615 509
804348 922028 525
799531 318591 509
976803 246508 525
27059 166848 383
272733 509065 449
503931 241310 449
946965 626460 525
454416 774891 509
810436 756292 468
62978 140460 354
624326 455220 470
974666 553331 525
297590 295514 327
802544 546885 509
219146 393860 443
231128 488210 449
379755 18666 443
482215 884806 525
771076 734505 468
341849 94993 443
701508 158046 509
979047 550088 525
417499 341828 449
400723 86740 443
313260 199484 443
525011 59894 470
527675 559806 452
798074 749074 468
492800 671315 509
416810 874496 525
345191 863902 525
292754 545347 470
99825 562825 470
897957 862110 445
450115 865774 525